…
library(tidyverse)
library(RCurl)

The data used for the exercise is from a published manuscript of a waterhemp (Amaranthus tuberculatus) biotype control (%) with postemergence herbicides. Here for the exercise, herbicides are named A, B, C, D, and E. Run the following codes below to load the data into R.

df_path <- getURL("https://raw.githubusercontent.com/maxwelco/Anova-beta/master/data/control.csv")

control <- read_csv(df_path)

After run the codes above, the data should be in the control.

control

## # A tibble: 30 x 4
##     year herbicide   rep control
##    <dbl> <chr>     <dbl>   <dbl>
##  1  2013 A             1    0.99
##  2  2013 A             2    0.97
##  3  2013 A             3    0.96
##  4  2013 B             1    0.99
##  5  2013 B             2    0.99
##  6  2013 B             3    0.97
##  7  2013 C             1    0.95
##  8  2013 C             2    0.9 
##  9  2013 C             3    0.95
## 10  2013 D             1    0.5 
## # … with 20 more rows
…
